<?xml version="1.0" standalone="no"?>
<!DOCTYPE svg PUBLIC "-//W3C//DTD SVG 1.1//EN" "http://www.w3.org/Graphics/SVG/1.1/DTD/svg11.dtd" >
<svg xmlns="http://www.w3.org/2000/svg">
<metadata>Generated by IcoMoon</metadata>
<defs>
<font id="icomoon" horiz-adv-x="1024">
<font-face units-per-em="1024" ascent="960" descent="-64" />
<missing-glyph horiz-adv-x="1024" />
<glyph unicode="&#x20;" horiz-adv-x="512" d="" />
<glyph unicode="&#xe900;" glyph-name="calendar" d="M938.688 864h-138.688v64c0 17.696-14.304 32-32 32s-32-14.304-32-32v-64h-192v64c0 17.696-14.336 32-32 32s-32-14.304-32-32v-64h-192v64c0 17.696-14.336 32-32 32s-32-14.304-32-32v-64h-138.656c-47.136 0-85.344-38.176-85.344-85.312v-757.344c0-47.136 38.208-85.344 85.344-85.344h853.344c47.136 0 85.312 38.208 85.312 85.344v757.344c0 47.136-38.176 85.312-85.312 85.312zM960 21.344c0-11.776-9.568-21.344-21.312-21.344h-853.344c-11.776 0-21.344 9.568-21.344 21.344v757.344c0 11.744 9.568 21.312 21.344 21.312h138.656v-64c0-17.696 14.336-32 32-32s32 14.304 32 32v64h192v-64c0-17.696 14.336-32 32-32s32 14.304 32 32v64h192v-64c0-17.696 14.304-32 32-32s32 14.304 32 32v64h138.688c11.744 0 21.312-9.568 21.312-21.312v-757.344zM224 576h128v-96h-128zM224 416h128v-96h-128zM224 256h128v-96h-128zM448 256h128v-96h-128zM448 416h128v-96h-128zM448 576h128v-96h-128zM672 256h128v-96h-128zM672 416h128v-96h-128zM672 576h128v-96h-128z" />
<glyph unicode="&#xe902;" glyph-name="code" horiz-adv-x="1280" d="M832 224l96-96 320 320-320 320-96-96 224-224zM448 672l-96 96-320-320 320-320 96 96-224 224zM701.298 809.481l69.468-18.944-191.987-704.026-69.468 18.944 191.987 704.026z" />
<glyph unicode="&#xe903;" glyph-name="gallery" d="M896 704v-512c0-35.328-28.672-64-64-64h-672c0-35.328 28.672-64 64-64h672c35.328 0 64 28.672 64 64v512c0 35.328-28.672 64-64 64zM864 224v512c0 35.328-28.672 64-64 64h-672c-35.328 0-64-28.672-64-64v-512c0-35.328 28.672-64 64-64h672c35.328 0 64 28.672 64 64zM128 736h672v-512h-672v512zM500.064 406.048l-95.616 101.792-95.648-163.328-71.744 74.976-77.728-164.128h609.76l-137.504 359.84-131.52-209.152zM256 512c35.328 0 64 28.672 64 64s-28.672 64-64 64-64-28.672-64-64 28.672-64 64-64z" />
<glyph unicode="&#xe904;" glyph-name="download" d="M853.333 298.667v-170.667c0-11.776-4.736-22.4-12.501-30.165s-18.389-12.501-30.165-12.501h-597.333c-11.776 0-22.4 4.736-30.165 12.501s-12.501 18.389-12.501 30.165v170.667c0 23.552-19.115 42.667-42.667 42.667s-42.667-19.115-42.667-42.667v-170.667c0-35.328 14.379-67.413 37.504-90.496s55.168-37.504 90.496-37.504h597.333c35.328 0 67.413 14.379 90.496 37.504s37.504 55.168 37.504 90.496v170.667c0 23.552-19.115 42.667-42.667 42.667s-42.667-19.115-42.667-42.667zM554.667 401.664v409.003c0 23.552-19.115 42.667-42.667 42.667s-42.667-19.115-42.667-42.667v-409.003l-140.501 140.501c-16.683 16.683-43.691 16.683-60.331 0s-16.683-43.691 0-60.331l213.333-213.333c3.925-3.925 8.619-7.083 13.824-9.259s10.795-3.243 16.341-3.243c10.923 0 21.845 4.181 30.165 12.501l213.333 213.333c16.683 16.683 16.683 43.691 0 60.331s-43.691 16.683-60.331 0z" />
<glyph unicode="&#xe905;" glyph-name="education" d="M170.496 563.2l341.504-204.8 512 307.2-512 307.2-512-307.2h512v-102.4h-341.504zM0 563.2v-409.6l102.4 113.664v234.496l-102.4 61.44zM512-51.2l-358.4 215.040v307.2l358.4-215.040 358.4 215.040v-307.2l-358.4-215.040z" />
<glyph unicode="&#xe906;" glyph-name="tools, measure" horiz-adv-x="992" d="M6.752 779.328c-27.104-27.136-21.312-65.344 0.256-86.88 0.864-0.832 87.488-83.584 209.312-205.408 3.136-3.136 7.232-4.672 11.328-4.672s8.192 1.568 11.328 4.672c6.24 6.24 6.24 16.384 0 22.624-18.368 18.368-35.84 35.744-52.416 52.192l50.848 50.848c6.24 6.24 6.24 16.384 0 22.624s-16.384 6.24-22.624 0l-50.976-50.976c-28.512 28.16-53.632 52.736-74.080 72.672l115.68 115.68c6.24 6.24 6.24 16.384 0 22.624s-16.384 6.24-22.624 0l-116.032-116.032c-23.552 22.816-37.12 35.776-37.344 36-6.752 6.752-15.616 25.76 0 41.376l160 160c6.176 6.272 22.624 18.72 40.672 0.768 0.8-0.896 81.6-92.672 204.928-216 6.24-6.24 16.384-6.24 22.624 0s6.24 16.384 0 22.624c-122.56 122.528-202.752 213.6-204.224 215.264-29.824 29.76-65.792 20.832-86.624 0l-160.032-160zM685.408 187.328c-6.24 6.24-16.384 6.24-22.624 0l-50.912-50.88c-15.52 15.712-31.808 32.16-48.96 49.312-6.24 6.24-16.384 6.24-22.624 0s-6.24-16.384 0-22.624c118.528-118.496 201.312-207.008 202.496-208.288 10.976-11.008 26.016-17.056 42.336-17.056v0c16.8 0 33.792 6.56 44.32 17.12l159.936 161.824c20.128 20.128 21.28 54.272 2.496 73.12l-214.592 214.56c-6.24 6.24-16.384 6.24-22.624 0s-6.24-16.384 0-22.624l214.592-214.56c6.4-6.4 5.184-20.224-2.528-27.936l-159.968-161.824c-3.68-3.712-12.032-7.68-21.632-7.68 0 0 0 0 0 0-5.504 0-13.376 1.344-19.328 7.328-0.32 0.352-13.728 14.656-36.992 39.008l116.608 116.608c6.24 6.24 6.24 16.384 0 22.624s-16.384 6.24-22.624 0l-116.128-116.128c-19.968 20.768-44.448 46.016-72.32 74.432l51.072 51.072c6.24 6.208 6.24 16.32 0 22.592zM-9.376-58.528c3.072-3.136 7.2-4.8 11.456-4.8 1.536 0 3.072 0.224 4.576 0.672l320 95.328c2.592 0.768 4.896 2.144 6.784 4.064l546.88 550.56c0.768 0.768 1.152 1.76 1.728 2.624l116.992 116.992c9.408 9.44 14.624 21.952 14.624 35.296 0 13.312-5.216 25.824-14.624 35.2l-167.52 167.488c-18.816 18.816-51.68 18.816-70.496 0l-119.648-119.648c-0.768-0.768-1.184-1.76-1.76-2.656l-547.712-547.744c-1.792-1.792-3.136-3.968-3.904-6.368l-101.12-310.88c-1.856-5.664-0.416-11.84 3.744-16.128zM653.6 791.328l33.248-33.248-496.736-498.080-55.264 12.544 518.752 518.784zM210.080 234.688l499.424 500.736 77.952-77.952-503.936-497.472h-73.44v74.688zM846.368 598.528l-519.808-523.328-18.464 64.064 501.984 495.584 36.288-36.32zM113.856 244.512l64.224-14.592v-85.92c0-8.832 7.168-16 16-16h83.968l20.288-70.4-271.616-80.928 87.136 267.84zM783.68 922.272c6.752 6.752 18.496 6.752 25.248 0l167.52-167.52c3.36-3.36 5.216-7.84 5.216-12.608 0-4.736-1.856-9.248-5.248-12.64l-107.872-107.904-192.736 192.736 107.872 107.936z" />
<glyph unicode="&#xe907;" glyph-name="link1" d="M392.491 358.443c42.325-56.619 103.68-90.709 168.448-100.053s133.248 6.059 189.867 48.384c10.197 7.637 19.84 16 27.947 24.235l127.787 127.787c49.621 51.371 73.472 117.376 72.363 182.827s-27.264 130.603-78.123 179.669c-50.005 48.299-114.688 72.192-179.157 71.808-63.659-0.341-127.317-24.363-176.512-71.808l-73.856-73.429c-16.725-16.597-16.811-43.648-0.171-60.331s43.648-16.811 60.331-0.171l72.917 72.491c32.853 31.659 75.221 47.659 117.76 47.915 43.051 0.256 86.016-15.659 119.381-47.872 33.92-32.768 51.328-76.075 52.096-119.808s-15.147-87.637-47.36-121.003l-128.213-128.213c-4.864-4.949-11.221-10.539-18.261-15.787-37.76-28.245-83.285-38.485-126.592-32.256s-84.096 28.928-112.299 66.688c-14.123 18.859-40.832 22.741-59.733 8.619s-22.741-40.832-8.619-59.733zM631.509 494.891c-42.325 56.619-103.68 90.709-168.448 100.053s-133.291-6.059-189.909-48.384c-10.197-7.637-19.797-16-27.947-24.235l-127.787-127.787c-49.621-51.371-73.472-117.376-72.363-182.827s27.264-130.603 78.123-179.669c50.005-48.299 114.688-72.192 179.157-71.808 63.659 0.341 127.317 24.363 176.512 71.808l73.515 73.515c16.683 16.683 16.683 43.691 0 60.331s-43.691 16.683-60.331 0l-72.363-72.448c-32.853-31.659-75.221-47.659-117.76-47.915-43.051-0.256-86.016 15.659-119.381 47.872-33.92 32.768-51.328 76.075-52.096 119.808s15.147 87.637 47.36 121.003l128.213 128.213c4.864 4.949 11.221 10.539 18.261 15.787 37.76 28.245 83.285 38.485 126.592 32.256s84.096-28.928 112.299-66.688c14.123-18.859 40.832-22.741 59.733-8.619s22.741 40.832 8.619 59.733z" />
<glyph unicode="&#xe908;" glyph-name="link" d="M474.112 307.2c-8.559 14.643-13.613 32.239-13.613 51.016 0 19.135 5.248 37.044 14.384 52.366l-0.259-0.469c79.299 6.646 141.144 72.648 141.144 153.094 0 84.831-68.769 153.6-153.6 153.6-0.481 0-0.961-0.002-1.441-0.007l0.073 0.001h-204.8c-84.831 0-153.6-68.769-153.6-153.6s68.769-153.6 153.6-153.6v0h4.096c-2.706-15.393-4.254-33.116-4.254-51.2s1.547-35.807 4.516-53.044l-0.263 1.844h-4.096c-141.385 0-256 114.615-256 256s114.615 256 256 256v0h204.8c1.982 0.055 4.315 0.087 6.656 0.087 141.433 0 256.087-114.654 256.087-256.087 0-139.092-110.89-252.284-249.087-255.993l-0.343-0.007zM549.888 614.4c8.559-14.643 13.613-32.239 13.613-51.016 0-19.135-5.248-37.044-14.384-52.366l0.259 0.469c-79.299-6.646-141.144-72.648-141.144-153.094 0-84.831 68.769-153.6 153.6-153.6 0.481 0 0.961 0.002 1.441 0.007l-0.073-0.001h204.8c84.831 0 153.6 68.769 153.6 153.6s-68.769 153.6-153.6 153.6v0h-4.096c2.706 15.393 4.254 33.116 4.254 51.2s-1.547 35.807-4.516 53.044l0.263-1.844h4.096c141.385 0 256-114.615 256-256s-114.615-256-256-256v0h-204.8c-1.982-0.055-4.315-0.087-6.656-0.087-141.433 0-256.087 114.654-256.087 256.087 0 139.092 110.89 252.284 249.087 255.993l0.343 0.007z" />
<glyph unicode="&#xe909;" glyph-name="hash" horiz-adv-x="896" d="M896 576v128h-160.128l32 256h-128l-32-256h-255.936l32 256h-128l-32-256h-223.936v-128h207.936l-31.936-256h-176v-128h160l-32-256h128l32 256h255.936l-32-256h128.064l32 256h224v128h-208l31.872 256h176.128zM559.936 320h-255.936l31.936 256h255.936l-31.936-256z" />
<glyph unicode="&#xe90a;" glyph-name="nested-list" horiz-adv-x="1170" d="M109.686 804.571c0 32.821 26.606 59.43 59.43 59.43s59.43-26.606 59.43-59.43c0-32.821-26.606-59.43-59.43-59.43s-59.43 26.606-59.43 59.43zM347.403 864h713.143v-118.857h-713.143zM347.403 566.857c0 32.821 26.606 59.43 59.43 59.43s59.43-26.606 59.43-59.43c0-32.821-26.606-59.43-59.43-59.43s-59.43 26.606-59.43 59.43zM585.115 626.286h475.431v-118.857h-475.431zM347.403 91.429c0 32.821 26.606 59.43 59.43 59.43s59.43-26.606 59.43-59.43c0-32.821-26.606-59.43-59.43-59.43s-59.43 26.606-59.43 59.43zM585.115 150.857h475.431v-118.857h-475.431zM585.115 329.143c0 32.821 26.606 59.43 59.43 59.43s59.43-26.606 59.43-59.43c0-32.821-26.606-59.43-59.43-59.43s-59.43 26.606-59.43 59.43zM822.829 388.571h237.714v-118.857h-237.714z" />
<glyph unicode="&#xe90b;" glyph-name="earth" d="M512 960c-282.77 0-512-229.23-512-512s229.23-512 512-512 512 229.23 512 512-229.23 512-512 512zM512-0.002c-62.958 0-122.872 13.012-177.23 36.452l233.148 262.29c5.206 5.858 8.082 13.422 8.082 21.26v96c0 17.674-14.326 32-32 32-112.99 0-232.204 117.462-233.374 118.626-6 6.002-14.14 9.374-22.626 9.374h-128c-17.672 0-32-14.328-32-32v-192c0-12.122 6.848-23.202 17.69-28.622l110.31-55.156v-187.886c-116.052 80.956-192 215.432-192 367.664 0 68.714 15.49 133.806 43.138 192h116.862c8.488 0 16.626 3.372 22.628 9.372l128 128c6 6.002 9.372 14.14 9.372 22.628v77.412c40.562 12.074 83.518 18.588 128 18.588 70.406 0 137.004-16.26 196.282-45.2-4.144-3.502-8.176-7.164-12.046-11.036-36.266-36.264-56.236-84.478-56.236-135.764s19.97-99.5 56.236-135.764c36.434-36.432 85.218-56.264 135.634-56.26 3.166 0 6.342 0.080 9.518 0.236 13.814-51.802 38.752-186.656-8.404-372.334-0.444-1.744-0.696-3.488-0.842-5.224-81.324-83.080-194.7-134.656-320.142-134.656z" />
<glyph unicode="&#xe90c;" glyph-name="clock" d="M512 960c-282.784 0-512-229.248-512-512s229.216-512 512-512 512 229.248 512 512c0 282.752-229.216 512-512 512zM512 64c-212.064 0-384 171.936-384 384s171.936 384 384 384 384-171.936 384-384-171.936-384-384-384zM736 512h-160v224c0 17.664-14.304 32-32 32h-64c-17.696 0-32-14.336-32-32v-320c0-17.696 14.304-32 32-32h256c17.696 0 32 14.304 32 32v64c0 17.696-14.304 32-32 32z" />
<glyph unicode="&#xe90d;" glyph-name="list" d="M224 192h-192c-17.696 0-32-14.304-32-32v-192c0-17.696 14.304-32 32-32h192c17.696 0 32 14.304 32 32v192c0 17.696-14.304 32-32 32zM192 32c0-17.696-14.304-32-32-32h-64c-17.696 0-32 14.304-32 32v64c0 17.696 14.304 32 32 32h64c17.696 0 32-14.304 32-32v-64zM992 128h-576c-17.696 0-32-14.304-32-32v-64c0-17.696 14.304-32 32-32h576c17.696 0 32 14.304 32 32v64c0 17.696-14.304 32-32 32zM992 512h-576c-17.696 0-32-14.304-32-32v-64c0-17.696 14.304-32 32-32h576c17.696 0 32 14.304 32 32v64c0 17.696-14.304 32-32 32zM224 960h-192c-17.696 0-32-14.304-32-32v-192c0-17.696 14.304-32 32-32h192c17.696 0 32 46.304 32 64v160c0 17.696-14.304 32-32 32zM192 800c0-17.696-14.304-32-32-32h-64c-17.696 0-32 14.304-32 32v64c0 17.696 14.304 32 32 32h64c17.696 0 32-14.304 32-32v-64zM224 576h-192c-17.696 0-32-14.304-32-32v-192c0-17.696 14.304-32 32-32h192c17.696 0 32 14.304 32 32v192c0 17.696-14.304 32-32 32zM192 416c0-17.696-14.304-32-32-32h-64c-17.696 0-32 14.304-32 32v64c0 17.696 14.304 32 32 32h64c17.696 0 32-14.304 32-32v-64zM992 896h-576c-17.696 0-32-14.304-32-32v-64c0-17.696 14.304-32 32-32h576c17.696 0 32 14.304 32 32v64c0 17.696-14.304 32-32 32z" />
<glyph unicode="&#xe90f;" glyph-name="info" d="M512 960c-282.784 0-512-229.248-512-512s229.216-512 512-512 512 229.248 512 512c0 282.752-229.216 512-512 512zM512 768c35.328 0 64-28.672 64-64s-28.672-64-64-64-64 28.672-64 64 28.672 64 64 64zM352 192l96 64h64v256h-64l-32 64h160v-320h64l96-64h-384z" />
<glyph unicode="&#xe913;" glyph-name="song" d="M288 384h-64v-448h64c17.6 0 32 14.4 32 32v384c0 17.6-14.4 32-32 32zM736 384c-17.602 0-32-14.4-32-32v-384c0-17.6 14.398-32 32-32h64v448h-64zM1024 448c0 282.77-229.23 512-512 512s-512-229.23-512-512c0-61.412 10.83-120.29 30.656-174.848-19.478-33.206-30.656-71.87-30.656-113.152 0-112.846 83.448-206.188 192-221.716v443.418c-31.914-4.566-61.664-15.842-87.754-32.378-5.392 26.718-8.246 54.364-8.246 82.676 0 229.75 186.25 416 416 416s416-186.25 416-416c0-28.314-2.83-55.968-8.22-82.696-26.1 16.546-55.854 27.848-87.78 32.418v-443.44c108.548 15.532 192 108.874 192 221.714 0 41.274-11.178 79.934-30.648 113.138 19.828 54.566 30.648 113.452 30.648 174.866z" />
<glyph unicode="&#xe915;" glyph-name="copy-outline" d="M469.333 597.334c-35.328 0-67.413-14.379-90.496-37.504s-37.504-55.168-37.504-90.496v-384c0-35.328 14.379-67.413 37.504-90.496s55.168-37.504 90.496-37.504h384c35.328 0 67.413 14.379 90.496 37.504s37.504 55.168 37.504 90.496v384c0 35.328-14.379 67.413-37.504 90.496s-55.168 37.504-90.496 37.504zM469.333 512h384c11.776 0 22.4-4.736 30.165-12.501s12.501-18.389 12.501-30.165v-384c0-11.776-4.736-22.4-12.501-30.165s-18.389-12.501-30.165-12.501h-384c-11.776 0-22.4 4.736-30.165 12.501s-12.501 18.389-12.501 30.165v384c0 11.776 4.736 22.4 12.501 30.165s18.389 12.501 30.165 12.501zM213.333 341.334h-42.667c-11.776 0-22.4 4.736-30.165 12.501s-12.501 18.389-12.501 30.165v384c0 11.776 4.736 22.4 12.501 30.165s18.389 12.501 30.165 12.501h384c11.776 0 22.4-4.736 30.165-12.501s12.501-18.389 12.501-30.165v-42.667c0-23.552 19.115-42.667 42.667-42.667s42.667 19.115 42.667 42.667v42.667c0 35.328-14.379 67.413-37.504 90.496s-55.168 37.504-90.496 37.504h-384c-35.328 0-67.413-14.379-90.496-37.504s-37.504-55.168-37.504-90.496v-384c0-35.328 14.379-67.413 37.504-90.496s55.168-37.504 90.496-37.504h42.667c23.552 0 42.667 19.115 42.667 42.667s-19.115 42.667-42.667 42.667z" />
<glyph unicode="&#xe918;" glyph-name="show" d="M0 832v-768h1024v768h-1024zM192 128h-128v128h128v-128zM192 384h-128v128h128v-128zM192 640h-128v128h128v-128zM768 128h-512v640h512v-640zM960 128h-128v128h128v-128zM960 384h-128v128h128v-128zM960 640h-128v128h128v-128zM384 640v-384l256 192z" />
<glyph unicode="&#xe91a;" glyph-name="focus-center" d="M512 340.667q34 0 60 26t26 60-26 60-60 26-60-26-26-60 26-60 60-26zM512 596.667q70 0 120-50t50-120-50-120-120-50-120 50-50 120 50 120 120 50zM810 128.667v170h86v-170q0-34-26-60t-60-26h-170v86h170zM810 810.667q34 0 60-26t26-60v-170h-86v170h-170v86h170zM214 724.667v-170h-86v170q0 34 26 60t60 26h170v-86h-170zM214 298.667v-170h170v-86h-170q-34 0-60 26t-26 60v170h86z" />
<glyph unicode="&#xe91c;" glyph-name="timeline" d="M982 596.667q0-34-26-59t-60-25h-2q-14 0-20 2l-152-152q4-12 4-22 0-34-26-59t-60-25-60 25-26 59q0 10 4 22l-110 110q-12-4-22-4t-22 4l-194-194q4-12 4-22 0-34-26-60t-60-26-60 26-26 60 26 59 60 25q16 0 22-2l194 194q-2 6-2 22 0 34 25 60t59 26 60-26 26-60q0-16-2-22l108-108q6 2 22 2t22-2l152 150q-4 12-4 22 0 34 26 60t60 26 60-26 26-60z" />
<glyph unicode="&#xe91d;" glyph-name="whatsapp" d="M746.581 346.368c-12.843 6.4-75.392 36.992-87.040 41.216-11.648 4.309-20.181 6.4-28.715-6.4-8.405-12.587-32.896-41.131-40.277-49.579-7.467-8.32-14.891-8.96-27.563-3.2-12.8 6.4-53.888 19.84-102.528 63.36-37.888 33.92-63.317 75.52-70.827 88.32-7.424 12.8-0.811 19.84 5.547 26.24 5.803 5.76 12.843 14.72 19.243 22.315 6.229 7.723 8.277 12.843 12.672 21.163 4.267 8.96 2.091 16-1.067 22.357-3.2 6.4-28.672 69.12-39.339 94.123-10.24 24.917-20.779 21.76-28.672 21.76-7.339 0.64-15.829 0.64-24.363 0.64s-22.315-3.157-34.005-15.317c-11.648-12.8-44.587-43.52-44.587-105.6s45.653-122.24 52.011-131.2c6.357-8.32 89.813-136.32 217.6-191.36 30.464-12.8 54.187-20.48 72.704-26.837 30.464-9.685 58.24-8.32 80.213-5.163 24.491 3.883 75.392 30.763 86.016 60.843 10.88 30.080 10.88 55.040 7.68 60.8-3.157 5.76-11.52 8.96-24.32 14.72zM514.603 32h-0.683c-75.52 0-150.357 20.48-215.68 58.88l-15.36 9.131-160-41.6 42.88 155.52-10.197 16c-42.24 67.243-64.683 144.683-64.683 224.427 0 232.32 190.080 421.76 424.192 421.76 113.237 0 219.52-44.16 299.563-124.16 80-79.317 124.117-185.6 124.117-298.24-0.171-232.277-190.293-421.76-423.893-421.76zM875.52 812.843c-97.28 94.037-225.28 147.157-361.6 147.157-280.832 0-509.483-227.584-509.611-507.435 0-89.429 23.424-176.64 68.053-253.653l-72.363-262.912 270.293 70.485c74.496-40.235 158.293-61.611 243.627-61.739h0.256c280.96 0 509.696 227.669 509.824 507.563 0 135.509-52.907 263.040-149.12 358.869z" />
<glyph unicode="&#xe91e;" glyph-name="telegram" d="M1020.16 798.293l-154.027-727.467c-10.667-51.627-41.813-64-85.333-40.107l-234.667 173.653-113.493-109.653c-12.8-12.8-23.467-23.893-46.933-23.893-30.72 0-25.6 11.52-35.84 40.533l-81.067 264.107-232.533 72.533c-50.347 14.933-50.773 49.493 11.093 74.667l907.093 349.867c41.387 18.347 81.067-10.24 65.707-74.24z" />
<glyph unicode="&#xe91f;" glyph-name="skype" d="M514.944 154.709c-171.648 0-248.32 84.437-248.32 147.797 0 32.64 23.936 55.296 56.875 55.296 73.515 0 54.315-105.685 191.445-105.685 70.016 0 108.8 38.187 108.8 77.269 0 23.509-11.477 49.493-57.771 60.971l-152.576 38.187c-122.88 30.891-145.195 97.536-145.195 160.043 0 130.005 122.069 178.816 236.757 178.816 105.429 0 230.101-58.581 230.101-136.491 0-33.451-29.355-52.907-61.995-52.907-62.677 0-51.115 86.912-177.664 86.912-62.677 0-97.792-28.331-97.792-68.992s49.195-53.675 92.032-63.445l112.512-25.045c123.349-27.691 154.624-100.096 154.624-168.277 0-105.643-81.152-184.491-244.139-184.491zM985.557 362.965l-1.237-5.76-1.877 10.24c0.64-1.92 1.877-3.157 2.517-5.12 5.12 28.8 7.723 58.155 7.723 87.552 0 65.237-12.843 128.512-38.315 188.587-24.277 57.515-59.52 109.312-103.552 153.429-44.757 44.075-95.872 79.189-153.387 103.509-56.235 26.923-119.509 39.68-184.661 39.68-30.72 0-61.611-2.987-91.435-8.704l5.077-2.56-10.197 1.408 5.077 1.067c-41.131 22.016-87.253 33.707-134.101 33.707-76.331 0-148.053-29.781-202.069-83.925-54.016-54.101-83.755-126.123-83.755-202.624 0-48.768 12.459-96.64 36.011-139.008l0.853 5.291 1.749-10.197-2.56 4.907c-4.864-27.52-7.339-55.424-7.339-83.413 0-65.28 12.8-128.725 37.717-188.416 24.235-58.112 58.795-109.909 103.552-153.984 44.117-44.8 95.872-79.232 153.387-104.192 59.477-25.6 122.752-38.315 187.904-38.315 28.117 0 56.917 2.56 84.352 7.637l-5.077 2.645 10.24-1.963-5.76-1.28c42.752-24.277 90.709-37.163 140.544-37.163 76.075 0 147.584 29.44 201.941 83.755 53.717 53.717 83.712 125.909 83.712 202.624 0 48.555-12.757 96.512-36.395 139.349z" />
<glyph unicode="&#xe920;" glyph-name="linkedin" d="M872.405 87.381h-151.637v237.611c0 56.661-1.152 129.579-79.019 129.579-79.061 0-91.136-61.653-91.136-125.397v-241.792h-151.637v488.619h145.664v-66.603h1.963c20.352 38.4 69.845 78.933 143.787 78.933 153.643 0 182.059-101.12 182.059-232.747zM227.712 642.859c-48.811 0-88.021 39.509-88.021 88.107 0 48.555 39.253 88.021 88.021 88.021 48.64 0 88.064-39.467 88.064-88.021 0-48.597-39.467-88.107-88.064-88.107zM303.744 87.381h-152.064v488.619h152.064zM948.267 960h-872.704c-41.771 0-75.563-33.024-75.563-73.771v-876.459c0-40.789 33.792-73.771 75.563-73.771h872.576c41.728 0 75.861 32.981 75.861 73.771v876.459c0 40.747-34.133 73.771-75.861 73.771z" />
<glyph unicode="&#xe921;" glyph-name="email" d="M1024 768v-640c0-36.267-27.733-64-64-64h-64v580.821l-384-275.755-384 275.755v-580.821h-64c-36.309 0-64 27.733-64 64v640c0 18.133 6.912 34.133 18.389 45.568 11.477 11.605 27.52 18.432 45.611 18.432h21.333l426.667-309.333 426.667 309.333h21.333c18.133 0 34.133-6.912 45.611-18.432 11.52-11.435 18.389-27.435 18.389-45.568z" />
<glyph unicode="&#xe923;" glyph-name="chevron-right" horiz-adv-x="695" d="M632.571 449.714l-424-424c-14.286-14.286-37.143-14.286-51.429 0l-94.857 94.857c-14.286 14.286-14.286 37.143 0 51.429l303.429 303.429-303.429 303.429c-14.286 14.286-14.286 37.143 0 51.429l94.857 94.857c14.286 14.286 37.143 14.286 51.429 0l424-424c14.286-14.286 14.286-37.143 0-51.429z" />
<glyph unicode="&#xe927;" glyph-name="book" horiz-adv-x="1152" d="M224 832h-192c-17.6 0-32-14.4-32-32v-704c0-17.6 14.4-32 32-32h192c17.6 0 32 14.4 32 32v704c0 17.6-14.4 32-32 32zM192 640h-128v64h128v-64zM544 832h-192c-17.6 0-32-14.4-32-32v-704c0-17.6 14.4-32 32-32h192c17.6 0 32 14.4 32 32v704c0 17.6-14.4 32-32 32zM512 640h-128v64h128v-64zM765.088 782.52l-171.464-86.394c-15.716-7.918-22.096-27.258-14.178-42.976l287.978-571.548c7.918-15.718 27.258-22.098 42.976-14.178l171.464 86.392c15.716 7.92 22.096 27.26 14.178 42.974l-287.978 571.55c-7.92 15.718-27.26 22.1-42.976 14.18z" />
<glyph unicode="&#xe92a;" glyph-name="moon" d="M788.256 250.112c-262.016 0-474.24 212.384-474.24 474.24 0 86.24 24.736 166.016 64.992 235.616-218.368-62.976-379.008-261.984-379.008-500.608 0-288.992 234.24-523.36 523.264-523.36 238.624 0 437.76 160.736 500.736 379.008-69.76-40.128-149.504-64.896-235.744-64.896z" />
<glyph unicode="&#xe9ae;" glyph-name="suitcase" d="M960 704h-256v64c0 35.2-28.8 64-64 64h-256c-35.204 0-64-28.8-64-64v-64h-256c-35.2 0-64-28.8-64-64v-576c0-35.202 28.796-64 64-64h896c35.2 0 64 28.798 64 64v576c0 35.2-28.8 64-64 64zM384 767.884c0.034 0.040 0.074 0.082 0.114 0.116h255.772c0.042-0.034 0.082-0.076 0.118-0.116v-63.884h-256.004v63.884zM960 448h-128v-96c0-17.602-14.4-32-32-32h-64c-17.604 0-32 14.398-32 32v96h-384v-96c0-17.602-14.4-32-32-32h-64c-17.602 0-32 14.398-32 32v96h-128v64h896v-64z" />
<glyph unicode="&#xe9d4;" glyph-name="sun" d="M512 128c35.346 0 64-28.654 64-64v-64c0-35.346-28.654-64-64-64s-64 28.654-64 64v64c0 35.346 28.654 64 64 64zM512 768c-35.346 0-64 28.654-64 64v64c0 35.346 28.654 64 64 64s64-28.654 64-64v-64c0-35.346-28.654-64-64-64zM960 512c35.346 0 64-28.654 64-64s-28.654-64-64-64h-64c-35.348 0-64 28.654-64 64s28.652 64 64 64h64zM192 448c0-35.346-28.654-64-64-64h-64c-35.346 0-64 28.654-64 64s28.654 64 64 64h64c35.346 0 64-28.654 64-64zM828.784 221.726l45.256-45.258c24.992-24.99 24.992-65.516 0-90.508-24.994-24.992-65.518-24.992-90.51 0l-45.256 45.256c-24.992 24.99-24.992 65.516 0 90.51 24.994 24.992 65.518 24.992 90.51 0zM195.216 674.274l-45.256 45.256c-24.994 24.994-24.994 65.516 0 90.51s65.516 24.994 90.51 0l45.256-45.256c24.994-24.994 24.994-65.516 0-90.51s-65.516-24.994-90.51 0zM828.784 674.274c-24.992-24.992-65.516-24.992-90.51 0-24.992 24.994-24.992 65.516 0 90.51l45.256 45.254c24.992 24.994 65.516 24.994 90.51 0 24.992-24.994 24.992-65.516 0-90.51l-45.256-45.254zM195.216 221.726c24.992 24.992 65.518 24.992 90.508 0 24.994-24.994 24.994-65.52 0-90.51l-45.254-45.256c-24.994-24.992-65.516-24.992-90.51 0s-24.994 65.518 0 90.508l45.256 45.258zM512 704c-141.384 0-256-114.616-256-256 0-141.382 114.616-256 256-256 141.382 0 256 114.618 256 256 0 141.384-114.616 256-256 256zM512 288c-88.366 0-160 71.634-160 160s71.634 160 160 160 160-71.634 160-160-71.634-160-160-160z" />
</font></defs></svg>